COMMAND: GET http://127.0.0.1:9021/api/audit-events?page=1&limit=20

HTTP/1.1 200 OK
X-Powered-By: Express
Vary: Origin
Access-Control-Allow-Credentials: true
x-correlation-id: 643d3407-dad5-4878-ac9a-7f934326012e
Content-Type: application/json; charset=utf-8
Content-Length: 8209
ETag: W/"2011-DBlrWbjKrx7Uzs/K2DsHV0O/Sww"
Date: Tue, 05 May 2026 09:20:37 GMT
Connection: keep-alive
Keep-Alive: timeout=5

{"data":[{"id":"e61bf7a9-9ac3-48b8-abcf-ed64b7ba9451","tenantId":"system","actorUserId":"fa3aab8d-c7e1-49b2-b9fb-8aea94f3f7e3","action":"auth.login","entityType":null,"entityId":null,"correlationId":"dfe87de6-fbb7-47a8-8f6d-7ec91824aa7e","before":null,"after":null,"metadata":null,"createdAt":"2026-05-05T09:20:36.955Z"},{"id":"116254bf-a701-40cd-9443-bb5c53ea6b92","tenantId":"system","actorUserId":"caad0bf9-880e-47b0-b0b6-67a32bf25b3f","action":"auth.login","entityType":null,"entityId":null,"correlationId":"ab848484-b6b2-4e30-9def-7d09c86da419","before":null,"after":null,"metadata":null,"createdAt":"2026-05-05T09:20:15.175Z"},{"id":"d9209026-4596-4237-8a89-2dd90b9decef","tenantId":"system","actorUserId":"caad0bf9-880e-47b0-b0b6-67a32bf25b3f","action":"encounter.publish_report","entityType":"Encounter","entityId":"e2986489-5ae5-4f3b-b45a-572086370cbb","correlationId":"audit-20260505-0900-verifier","before":{"status":"published","documentStatus":"PUBLISHED"},"after":{"status":"published","documentId":"6da6f023-f20f-47fa-8d9f-e91482214a95","documentStatus":"PUBLISHED"},"metadata":null,"createdAt":"2026-05-05T09:19:57.729Z"},{"id":"b20e44b1-fe4f-4fdd-9bfd-d857bfd0407e","tenantId":"system","actorUserId":"caad0bf9-880e-47b0-b0b6-67a32bf25b3f","action":"auth.login","entityType":null,"entityId":null,"correlationId":"78e1ccaf-e6b9-4749-8a38-97cf7d1e8483","before":null,"after":null,"metadata":null,"createdAt":"2026-05-05T09:19:57.487Z"},{"id":"394d336a-3e1e-4c67-994a-dec0a12d2037","tenantId":"system","actorUserId":"caad0bf9-880e-47b0-b0b6-67a32bf25b3f","action":"encounter.publish_report","entityType":"Encounter","entityId":"e2986489-5ae5-4f3b-b45a-572086370cbb","correlationId":"audit-20260505-0900-verifier","before":{"status":"published","documentStatus":"PUBLISHED"},"after":{"status":"published","documentId":"6da6f023-f20f-47fa-8d9f-e91482214a95","documentStatus":"PUBLISHED"},"metadata":null,"createdAt":"2026-05-05T09:19:36.993Z"},{"id":"10d60e55-6673-4773-9c4f-b8427fd49ec7","tenantId":"system","actorUserId":null,"action":"encounter.auto_publish_report","entityType":"Encounter","entityId":"e2986489-5ae5-4f3b-b45a-572086370cbb","correlationId":"audit-20260505-0900-verifier","before":null,"after":{"status":"published","documentId":"6da6f023-f20f-47fa-8d9f-e91482214a95"},"metadata":null,"createdAt":"2026-05-05T09:19:36.642Z"},{"id":"d9a3e93f-dc71-4bf0-96b5-54435a57568e","tenantId":"system","actorUserId":null,"action":"document.auto_published","entityType":"Document","entityId":"6da6f023-f20f-47fa-8d9f-e91482214a95","correlationId":"audit-20260505-0900-verifier","before":null,"after":{"type":"LAB_REPORT"},"metadata":null,"createdAt":"2026-05-05T09:19:36.455Z"},{"id":"8aa2b7b3-77b0-4e73-8462-520fe3bc6f9b","tenantId":"system","actorUserId":null,"action":"document.rendered","entityType":"Document","entityId":"6da6f023-f20f-47fa-8d9f-e91482214a95","correlationId":"audit-20260505-0900-verifier","before":null,"after":{"pdfHash":"95e7459145053861e3ce42119758b3be3d402000d55ec6ede814d804e372bcb4","storageKey":"system/6da6f023-f20f-47fa-8d9f-e91482214a95/report.pdf"},"metadata":null,"createdAt":"2026-05-05T09:19:36.427Z"},{"id":"8075aa6b-2e84-4f71-b374-6e1c5d27fb23","tenantId":"system","actorUserId":"caad0bf9-880e-47b0-b0b6-67a32bf25b3f","action":"document.generate","entityType":"Document","entityId":"6da6f023-f20f-47fa-8d9f-e91482214a95","correlationId":"audit-20260505-0900-verifier","before":null,"after":{"type":"LAB_REPORT","status":"RENDERING","templateId":"315a2296-3e84-4c36-b36a-e3725fc58e9a","payloadHash":"5c8c3eed51924eb8a15f876365523a2eb90085578144aa31b57c7fa51e6df8fb"},"metadata":null,"createdAt":"2026-05-05T09:19:35.689Z"},{"id":"b109a76e-c5b5-48ff-ae3d-e8d123494494","tenantId":"system","actorUserId":"caad0bf9-880e-47b0-b0b6-67a32bf25b3f","action":"encounter.verify","entityType":"Encounter","entityId":"e2986489-5ae5-4f3b-b45a-572086370cbb","correlationId":"audit-20260505-0900-verifier","before":{"status":"resulted"},"after":{"status":"verified"},"metadata":null,"createdAt":"2026-05-05T09:19:35.096Z"},{"id":"c2d23898-2268-455f-99f6-177e65afcd37","tenantId":"system","actorUserId":"caad0bf9-880e-47b0-b0b6-67a32bf25b3f","action":"auth.login","entityType":null,"entityId":null,"correlationId":"audit-20260505-0900-verifier-login","before":null,"after":null,"metadata":null,"createdAt":"2026-05-05T09:19:34.204Z"},{"id":"e358900d-34f1-4c2a-b12a-ade1ab274247","tenantId":"system","actorUserId":null,"action":"document.auto_published","entityType":"Document","entityId":"5c043780-e031-48fe-a694-c113907d48be","correlationId":"audit-20260505-0900-v3","before":null,"after":{"type":"RECEIPT"},"metadata":null,"createdAt":"2026-05-05T09:19:09.804Z"},{"id":"8c2d307e-1555-4a5b-bb49-548a263e9f4a","tenantId":"system","actorUserId":null,"action":"document.rendered","entityType":"Document","entityId":"5c043780-e031-48fe-a694-c113907d48be","correlationId":"audit-20260505-0900-v3","before":null,"after":{"pdfHash":"d55313c1037441b6e4bde48a627dd927e38fb0e460f0f5fffc000a0c54487006","storageKey":"system/5c043780-e031-48fe-a694-c113907d48be/report.pdf"},"metadata":null,"createdAt":"2026-05-05T09:19:09.737Z"},{"id":"45305962-6545-484d-bc7b-d30ebe5931d7","tenantId":"system","actorUserId":"a3e45944-1031-4bcd-9980-54093c672750","action":"encounter.result","entityType":"Encounter","entityId":"e2986489-5ae5-4f3b-b45a-572086370cbb","correlationId":"audit-20260505-0900-v3","before":{"status":"specimen_received"},"after":{"status":"resulted","labOrderId":"be4ca3d8-67ba-456a-ad88-d76a22a855f3"},"metadata":null,"createdAt":"2026-05-05T09:19:08.988Z"},{"id":"253f56c6-b997-4192-8edd-a40fc1a93a32","tenantId":"system","actorUserId":"a3e45944-1031-4bcd-9980-54093c672750","action":"encounter.receive-specimen","entityType":"Encounter","entityId":"e2986489-5ae5-4f3b-b45a-572086370cbb","correlationId":"audit-20260505-0900-v3","before":{"status":"specimen_collected"},"after":{"status":"specimen_received","receivedAt":"2026-05-05T09:19:08.000Z"},"metadata":null,"createdAt":"2026-05-05T09:19:08.771Z"},{"id":"ae90bca9-ee17-486a-bcff-a6e0b86c55d9","tenantId":"system","actorUserId":"a3e45944-1031-4bcd-9980-54093c672750","action":"encounter.collect-specimen","entityType":"Encounter","entityId":"e2986489-5ae5-4f3b-b45a-572086370cbb","correlationId":"audit-20260505-0900-v3","before":{"status":"lab_ordered"},"after":{"status":"specimen_collected","barcode":"AUDIT-0900-004"},"metadata":null,"createdAt":"2026-05-05T09:19:08.356Z"},{"id":"02c6875d-e0a4-4cc4-beb4-68ab19b529ef","tenantId":"system","actorUserId":"a3e45944-1031-4bcd-9980-54093c672750","action":"document.generate","entityType":"Document","entityId":"5c043780-e031-48fe-a694-c113907d48be","correlationId":"audit-20260505-0900-v3","before":null,"after":{"type":"RECEIPT","status":"RENDERING","templateId":"tpl-receipt-v1-system","payloadHash":"14de40abd498f8f79b6e873a201c351fd8dbd5636ffc18cf2bf479f21a981ebb"},"metadata":null,"createdAt":"2026-05-05T09:19:07.650Z"},{"id":"c665381a-d8af-4f89-9033-5affff6ba3eb","tenantId":"system","actorUserId":"a3e45944-1031-4bcd-9980-54093c672750","action":"encounter.order-lab","entityType":"Encounter","entityId":"e2986489-5ae5-4f3b-b45a-572086370cbb","correlationId":"audit-20260505-0900-v3","before":{"status":"registered"},"after":{"status":"lab_ordered","labOrderId":"be4ca3d8-67ba-456a-ad88-d76a22a855f3"},"metadata":null,"createdAt":"2026-05-05T09:19:07.467Z"},{"id":"e868b6f8-5517-477f-a13a-a6b7a90958ff","tenantId":"system","actorUserId":"a3e45944-1031-4bcd-9980-54093c672750","action":"encounter.register","entityType":"Encounter","entityId":"e2986489-5ae5-4f3b-b45a-572086370cbb","correlationId":"audit-20260505-0900-v3","before":null,"after":{"status":"registered","patientId":"c654ad1e-4238-46a2-a9ee-b9a03cba5f03"},"metadata":null,"createdAt":"2026-05-05T09:19:06.981Z"},{"id":"613deaf3-c6a4-41ea-8c3e-74d9df6d2489","tenantId":"system","actorUserId":"a3e45944-1031-4bcd-9980-54093c672750","action":"auth.login","entityType":null,"entityId":null,"correlationId":"audit-20260505-0900-workflow-login-v3","before":null,"after":null,"metadata":null,"createdAt":"2026-05-05T09:19:06.368Z"}],"pagination":{"page":1,"limit":20,"total":6053,"totalPages":303}}